{
	"max_landed_units" : 10,
	"min_cannon_angle" : -60,
	"max_cannon_angle" : 60,
	"cannon_fire_rate" : 6,
	"paratrooper_spawn_frequency" : 0.4,
	"copter_spawn_frequency" : 0.2,
	"copter_reward" : 10,
	"paratrooper_falling_reward" : 2,
	"paratrooper_shot_reward" : 1,
	"shoot_penalty" : 1,
	"projectile_velocity" : 50,
	"gravity" : 12,
	"parachute_decceleration" : 15,
	"copter_spawn_min_y" : 0.1,
	"copter_spawn_max_y" : 0.2,
	"copter_min_velocity" : 10,
	"copter_max_velocity" : 15,
	"parachute_open_altitude" : 15,
	"parachute_open_velocity_threshold" : 5
}